[
    {
        "id": "402:11059006",
        "name": "Rossio",
        "x": -9.1424,
        "y": 38.71497,
        "companyZoneId": 402,
        "lat": 38.71497,
        "lon": -9.1424
    },
    {
        "id": "382:1_4509",
        "name": "TERREIRO DO PAÇO",
        "x": -9.133432,
        "y": 38.708497,
        "companyZoneId": 382,
        "lat": 38.708497,
        "lon": -9.133432
    },
    {
        "id": "382:1_4506",
        "name": "SUL E SUESTE",
        "x": -9.132619,
        "y": 38.707839,
        "companyZoneId": 382,
        "lat": 38.707839,
        "lon": -9.132619
    },
    {
        "id": "382:1_4505",
        "name": "SUL E SUESTE",
        "x": -9.132634,
        "y": 38.707687,
        "companyZoneId": 382,
        "lat": 38.707687,
        "lon": -9.132634
    },
    {
        "id": "382:1_4502",
        "name": "SUL E SUESTE",
        "x": -9.132884,
        "y": 38.707721,
        "companyZoneId": 382,
        "lat": 38.707721,
        "lon": -9.132884
    },
    {
        "id": "382:1_4501",
        "name": "SUL E SUESTE",
        "x": -9.132488,
        "y": 38.707756,
        "companyZoneId": 382,
        "lat": 38.707756,
        "lon": -9.132488
    },
    {
        "id": "382:1_4503",
        "name": "CAMPO CEBOLAS",
        "x": -9.130453,
        "y": 38.708688,
        "companyZoneId": 382,
        "lat": 38.708688,
        "lon": -9.130453
    },
    {
        "id": "382:1_1002",
        "name": "RESTAURADORES",
        "x": -9.141904,
        "y": 38.715437,
        "companyZoneId": 382,
        "lat": 38.715437,
        "lon": -9.141904
    },
    {
        "id": "382:1_1005",
        "name": "RESTAURADORES",
        "x": -9.1416,
        "y": 38.715958,
        "companyZoneId": 382,
        "lat": 38.715958,
        "lon": -9.1416
    },
    {
        "id": "382:1_1006",
        "name": "RESTAURADORES",
        "x": -9.141918,
        "y": 38.715631,
        "companyZoneId": 382,
        "lat": 38.715631,
        "lon": -9.141918
    },
    {
        "id": "382:1_1003",
        "name": "RESTAURADORES",
        "x": -9.141625,
        "y": 38.715976,
        "companyZoneId": 382,
        "lat": 38.715976,
        "lon": -9.141625
    },
    {
        "id": "382:1_1004",
        "name": "RESTAURADORES",
        "x": -9.141763,
        "y": 38.715446,
        "companyZoneId": 382,
        "lat": 38.715446,
        "lon": -9.141763
    },
    {
        "id": "382:1_1012",
        "name": "LARGO DA ANUNCIADA",
        "x": -9.14178,
        "y": 38.717845,
        "companyZoneId": 382,
        "lat": 38.717845,
        "lon": -9.14178
    },
    {
        "id": "382:1_1013",
        "name": "RUA CÂMARA PESTANA",
        "x": -9.14013,
        "y": 38.718659,
        "companyZoneId": 382,
        "lat": 38.718659,
        "lon": -9.14013
    },
    {
        "id": "382:1_1010",
        "name": "RESTAURADORES",
        "x": -9.141752,
        "y": 38.716116,
        "companyZoneId": 382,
        "lat": 38.716116,
        "lon": -9.141752
    },
    {
        "id": "382:1_1014",
        "name": "RESTAURADORES - GLÓRIA",
        "x": -9.142668,
        "y": 38.716169,
        "companyZoneId": 382,
        "lat": 38.716169,
        "lon": -9.142668
    },
    {
        "id": "382:1_13822",
        "name": "RUA DOS LAGARES",
        "x": -9.13209,
        "y": 38.715464,
        "companyZoneId": 382,
        "lat": 38.715464,
        "lon": -9.13209
    },
    {
        "id": "382:1_13824",
        "name": "LARGO DO TERREIRINHO",
        "x": -9.133056,
        "y": 38.716115,
        "companyZoneId": 382,
        "lat": 38.716115,
        "lon": -9.133056
    },
    {
        "id": "382:1_809",
        "name": "RUA DE SÃO LÁZARO",
        "x": -9.136711,
        "y": 38.718601,
        "companyZoneId": 382,
        "lat": 38.718601,
        "lon": -9.136711
    },
    {
        "id": "382:1_807",
        "name": "MARTIM MONIZ",
        "x": -9.137615,
        "y": 38.714831,
        "companyZoneId": 382,
        "lat": 38.714831,
        "lon": -9.137615
    },
    {
        "id": "382:1_801",
        "name": "MARTIM MONIZ",
        "x": -9.13601,
        "y": 38.715271,
        "companyZoneId": 382,
        "lat": 38.715271,
        "lon": -9.13601
    },
    {
        "id": "382:1_805",
        "name": "MARTIM MONIZ",
        "x": -9.13662,
        "y": 38.714959,
        "companyZoneId": 382,
        "lat": 38.714959,
        "lon": -9.13662
    },
    {
        "id": "382:1_804",
        "name": "RUA DA PALMA",
        "x": -9.135736,
        "y": 38.71916,
        "companyZoneId": 382,
        "lat": 38.71916,
        "lon": -9.135736
    },
    {
        "id": "382:1_803",
        "name": "RUA DA PALMA",
        "x": -9.135564,
        "y": 38.7192,
        "companyZoneId": 382,
        "lat": 38.7192,
        "lon": -9.135564
    },
    {
        "id": "382:1_13809",
        "name": "SÃO TOMÉ",
        "x": -9.130651,
        "y": 38.713425,
        "companyZoneId": 382,
        "lat": 38.713425,
        "lon": -9.130651
    },
    {
        "id": "382:1_13808",
        "name": "COSTA DO CASTELO",
        "x": -9.132885,
        "y": 38.71179,
        "companyZoneId": 382,
        "lat": 38.71179,
        "lon": -9.132885
    },
    {
        "id": "382:1_13805",
        "name": "MIRADOURO DE SANTA LUZIA",
        "x": -9.130576,
        "y": 38.711581,
        "companyZoneId": 382,
        "lat": 38.711581,
        "lon": -9.130576
    },
    {
        "id": "382:1_13804",
        "name": "LIMOEIRO",
        "x": -9.13234,
        "y": 38.710166,
        "companyZoneId": 382,
        "lat": 38.710166,
        "lon": -9.13234
    },
    {
        "id": "382:1_13807",
        "name": "LARGO DO CONTADOR MOR",
        "x": -9.13091,
        "y": 38.711944,
        "companyZoneId": 382,
        "lat": 38.711944,
        "lon": -9.13091
    },
    {
        "id": "382:1_13806",
        "name": "CÇ. DE S. VICENTE",
        "x": -9.128725,
        "y": 38.713507,
        "companyZoneId": 382,
        "lat": 38.713507,
        "lon": -9.128725
    },
    {
        "id": "382:1_13801",
        "name": "SÉ",
        "x": -9.133769,
        "y": 38.709761,
        "companyZoneId": 382,
        "lat": 38.709761,
        "lon": -9.133769
    },
    {
        "id": "382:1_13803",
        "name": "LIMOEIRO",
        "x": -9.13163,
        "y": 38.710327,
        "companyZoneId": 382,
        "lat": 38.710327,
        "lon": -9.13163
    },
    {
        "id": "382:1_13802",
        "name": "SÉ",
        "x": -9.134268,
        "y": 38.710052,
        "companyZoneId": 382,
        "lat": 38.710052,
        "lon": -9.134268
    },
    {
        "id": "382:1_819",
        "name": "MARTIM MONIZ",
        "x": -9.136134,
        "y": 38.715296,
        "companyZoneId": 382,
        "lat": 38.715296,
        "lon": -9.136134
    },
    {
        "id": "382:1_818",
        "name": "MARTIM MONIZ",
        "x": -9.13571,
        "y": 38.716036,
        "companyZoneId": 382,
        "lat": 38.716036,
        "lon": -9.13571
    },
    {
        "id": "382:1_817",
        "name": "SOCORRO",
        "x": -9.135152,
        "y": 38.71671,
        "companyZoneId": 382,
        "lat": 38.71671,
        "lon": -9.135152
    },
    {
        "id": "382:1_13810",
        "name": "CASTELO",
        "x": -9.13249,
        "y": 38.71229,
        "companyZoneId": 382,
        "lat": 38.71229,
        "lon": -9.13249
    },
    {
        "id": "382:1_13816",
        "name": "MIRADOURO DE SANTA LUZIA",
        "x": -9.130714,
        "y": 38.711314,
        "companyZoneId": 382,
        "lat": 38.711314,
        "lon": -9.130714
    },
    {
        "id": "382:1_812",
        "name": "DESTERRO",
        "x": -9.137763,
        "y": 38.719716,
        "companyZoneId": 382,
        "lat": 38.719716,
        "lon": -9.137763
    },
    {
        "id": "382:1_811",
        "name": "DESTERRO",
        "x": -9.138105,
        "y": 38.719813,
        "companyZoneId": 382,
        "lat": 38.719813,
        "lon": -9.138105
    },
    {
        "id": "382:1_810",
        "name": "RUA DE SÃO LÁZARO",
        "x": -9.136334,
        "y": 38.718218,
        "companyZoneId": 382,
        "lat": 38.718218,
        "lon": -9.136334
    },
    {
        "id": "382:1_13812",
        "name": "LARGO DAS PORTAS DO SOL",
        "x": -9.130408,
        "y": 38.712182,
        "companyZoneId": 382,
        "lat": 38.712182,
        "lon": -9.130408
    },
    {
        "id": "382:1_816",
        "name": "MARTIM MONIZ",
        "x": -9.13604,
        "y": 38.715498,
        "companyZoneId": 382,
        "lat": 38.715498,
        "lon": -9.13604
    },
    {
        "id": "382:1_13811",
        "name": "LARGO DAS PORTAS DO SOL",
        "x": -9.130601,
        "y": 38.71253,
        "companyZoneId": 382,
        "lat": 38.71253,
        "lon": -9.130601
    },
    {
        "id": "382:1_815",
        "name": "MARTIM MONIZ",
        "x": -9.137467,
        "y": 38.715021,
        "companyZoneId": 382,
        "lat": 38.715021,
        "lon": -9.137467
    },
    {
        "id": "382:1_13814",
        "name": "RUA DAS ESCOLAS GERAIS",
        "x": -9.129708,
        "y": 38.713085,
        "companyZoneId": 382,
        "lat": 38.713085,
        "lon": -9.129708
    },
    {
        "id": "382:1_13813",
        "name": "RUA DAS ESCOLAS GERAIS",
        "x": -9.129493,
        "y": 38.712887,
        "companyZoneId": 382,
        "lat": 38.712887,
        "lon": -9.129493
    },
    {
        "id": "382:1_9209",
        "name": "DESTERRO",
        "x": -9.137991,
        "y": 38.720609,
        "companyZoneId": 382,
        "lat": 38.720609,
        "lon": -9.137991
    },
    {
        "id": "382:1_14802",
        "name": "VOZ DO OPERÁRIO",
        "x": -9.128831,
        "y": 38.715036,
        "companyZoneId": 382,
        "lat": 38.715036,
        "lon": -9.128831
    },
    {
        "id": "382:1_14801",
        "name": "VOZ DO OPERÁRIO",
        "x": -9.12873,
        "y": 38.715074,
        "companyZoneId": 382,
        "lat": 38.715074,
        "lon": -9.12873
    },
    {
        "id": "382:1_14804",
        "name": "GRAÇA",
        "x": -9.129884,
        "y": 38.717217,
        "companyZoneId": 382,
        "lat": 38.717217,
        "lon": -9.129884
    },
    {
        "id": "382:1_14803",
        "name": "GRAÇA",
        "x": -9.129717,
        "y": 38.717233,
        "companyZoneId": 382,
        "lat": 38.717233,
        "lon": -9.129717
    },
    {
        "id": "382:1_3812",
        "name": "CAIS SODRÉ",
        "x": -9.143463,
        "y": 38.705474,
        "companyZoneId": 382,
        "lat": 38.705474,
        "lon": -9.143463
    },
    {
        "id": "382:1_9119",
        "name": "R. SRA. GLÓRIA",
        "x": -9.12767,
        "y": 38.71822,
        "companyZoneId": 382,
        "lat": 38.71822,
        "lon": -9.12767
    },
    {
        "id": "382:1_3824",
        "name": "CORPO SANTO",
        "x": -9.142206,
        "y": 38.70699,
        "companyZoneId": 382,
        "lat": 38.70699,
        "lon": -9.142206
    },
    {
        "id": "382:1_3823",
        "name": "CORPO SANTO",
        "x": -9.142464,
        "y": 38.707023,
        "companyZoneId": 382,
        "lat": 38.707023,
        "lon": -9.142464
    },
    {
        "id": "382:1_3826",
        "name": "RUA DO ALECRIM",
        "x": -9.143406,
        "y": 38.708063,
        "companyZoneId": 382,
        "lat": 38.708063,
        "lon": -9.143406
    },
    {
        "id": "382:1_3825",
        "name": "RUA DO ALECRIM",
        "x": -9.143346,
        "y": 38.707592,
        "companyZoneId": 382,
        "lat": 38.707592,
        "lon": -9.143346
    },
    {
        "id": "382:1_3820",
        "name": "CORPO SANTO",
        "x": -9.141645,
        "y": 38.707229,
        "companyZoneId": 382,
        "lat": 38.707229,
        "lon": -9.141645
    },
    {
        "id": "382:1_3822",
        "name": "CORPO SANTO",
        "x": -9.142407,
        "y": 38.706636,
        "companyZoneId": 382,
        "lat": 38.706636,
        "lon": -9.142407
    },
    {
        "id": "382:1_3821",
        "name": "CORPO SANTO",
        "x": -9.141979,
        "y": 38.707304,
        "companyZoneId": 382,
        "lat": 38.707304,
        "lon": -9.141979
    },
    {
        "id": "382:1_9120",
        "name": "TV. STO. ANTÓNIO",
        "x": -9.127983,
        "y": 38.719177,
        "companyZoneId": 382,
        "lat": 38.719177,
        "lon": -9.127983
    },
    {
        "id": "382:1_9131",
        "name": "RUA DA GRAÇA",
        "x": -9.12988,
        "y": 38.719221,
        "companyZoneId": 382,
        "lat": 38.719221,
        "lon": -9.12988
    },
    {
        "id": "382:1_9130",
        "name": "RUA DA GRAÇA",
        "x": -9.129837,
        "y": 38.719031,
        "companyZoneId": 382,
        "lat": 38.719031,
        "lon": -9.129837
    },
    {
        "id": "382:1_3807",
        "name": "CAIS SODRÉ",
        "x": -9.143324,
        "y": 38.705727,
        "companyZoneId": 382,
        "lat": 38.705727,
        "lon": -9.143324
    },
    {
        "id": "382:1_3801",
        "name": "CAIS SODRÉ",
        "x": -9.14315,
        "y": 38.705888,
        "companyZoneId": 382,
        "lat": 38.705888,
        "lon": -9.14315
    },
    {
        "id": "382:1_5605",
        "name": "RUA DA CONCEIÇÃO",
        "x": -9.137717,
        "y": 38.709421,
        "companyZoneId": 382,
        "lat": 38.709421,
        "lon": -9.137717
    },
    {
        "id": "382:1_5601",
        "name": "LARGO DA MADALENA",
        "x": -9.135271,
        "y": 38.710048,
        "companyZoneId": 382,
        "lat": 38.710048,
        "lon": -9.135271
    },
    {
        "id": "382:1_5602",
        "name": "RUA DA CONCEIÇÃO",
        "x": -9.135962,
        "y": 38.709944,
        "companyZoneId": 382,
        "lat": 38.709944,
        "lon": -9.135962
    },
    {
        "id": "382:1_5604",
        "name": "RUA DA CONCEIÇÃO",
        "x": -9.137048,
        "y": 38.709669,
        "companyZoneId": 382,
        "lat": 38.709669,
        "lon": -9.137048
    },
    {
        "id": "382:1_10503",
        "name": "LARGO TRINDADE COELHO",
        "x": -9.143334,
        "y": 38.713181,
        "companyZoneId": 382,
        "lat": 38.713181,
        "lon": -9.143334
    },
    {
        "id": "382:1_10502",
        "name": "PRAÇA LUÍS DE CAMÕES",
        "x": -9.143156,
        "y": 38.709942,
        "companyZoneId": 382,
        "lat": 38.709942,
        "lon": -9.143156
    },
    {
        "id": "382:1_10501",
        "name": "PRAÇA LUÍS DE CAMÕES",
        "x": -9.142904,
        "y": 38.710957,
        "companyZoneId": 382,
        "lat": 38.710957,
        "lon": -9.142904
    },
    {
        "id": "382:1_10504",
        "name": "LARGO TRINDADE COELHO",
        "x": -9.143213,
        "y": 38.71255,
        "companyZoneId": 382,
        "lat": 38.71255,
        "lon": -9.143213
    },
    {
        "id": "382:1_5518",
        "name": "R. PRATA",
        "x": -9.136894,
        "y": 38.711027,
        "companyZoneId": 382,
        "lat": 38.711027,
        "lon": -9.136894
    },
    {
        "id": "382:1_5519",
        "name": "PRAÇA DO COMÉRCIO",
        "x": -9.136384,
        "y": 38.709676,
        "companyZoneId": 382,
        "lat": 38.709676,
        "lon": -9.136384
    },
    {
        "id": "382:1_5515",
        "name": "PRAÇA DO COMÉRCIO",
        "x": -9.137099,
        "y": 38.7081,
        "companyZoneId": 382,
        "lat": 38.7081,
        "lon": -9.137099
    },
    {
        "id": "382:1_5510",
        "name": "R. OURO",
        "x": -9.138716,
        "y": 38.710847,
        "companyZoneId": 382,
        "lat": 38.710847,
        "lon": -9.138716
    },
    {
        "id": "382:1_5512",
        "name": "PRAÇA DO COMÉRCIO",
        "x": -9.136478,
        "y": 38.708246,
        "companyZoneId": 382,
        "lat": 38.708246,
        "lon": -9.136478
    },
    {
        "id": "382:1_8202",
        "name": "ALFÂNDEGA (TERMINAL CRUZEIROS)",
        "x": -9.129029,
        "y": 38.709577,
        "companyZoneId": 382,
        "lat": 38.709577,
        "lon": -9.129029
    },
    {
        "id": "382:1_10519",
        "name": "RUA VÍTOR CORDON",
        "x": -9.141422,
        "y": 38.707962,
        "companyZoneId": 382,
        "lat": 38.707962,
        "lon": -9.141422
    },
    {
        "id": "382:1_10514",
        "name": "CHIADO",
        "x": -9.142011,
        "y": 38.710323,
        "companyZoneId": 382,
        "lat": 38.710323,
        "lon": -9.142011
    },
    {
        "id": "382:1_10518",
        "name": "LARGO DAS BELAS ARTES",
        "x": -9.140464,
        "y": 38.708072,
        "companyZoneId": 382,
        "lat": 38.708072,
        "lon": -9.140464
    },
    {
        "id": "382:1_10517",
        "name": "RUA VÍTOR CORDON",
        "x": -9.142578,
        "y": 38.70794,
        "companyZoneId": 382,
        "lat": 38.70794,
        "lon": -9.142578
    },
    {
        "id": "382:1_10516",
        "name": "RUA SERPA PINTO",
        "x": -9.141982,
        "y": 38.708265,
        "companyZoneId": 382,
        "lat": 38.708265,
        "lon": -9.141982
    },
    {
        "id": "382:1_10515",
        "name": "CHIADO",
        "x": -9.142464,
        "y": 38.710081,
        "companyZoneId": 382,
        "lat": 38.710081,
        "lon": -9.142464
    },
    {
        "id": "382:1_10521",
        "name": "LARGO DAS BELAS ARTES",
        "x": -9.139901,
        "y": 38.708037,
        "companyZoneId": 382,
        "lat": 38.708037,
        "lon": -9.139901
    },
    {
        "id": "382:1_5508",
        "name": "PRAÇA DO COMÉRCIO",
        "x": -9.137739,
        "y": 38.708372,
        "companyZoneId": 382,
        "lat": 38.708372,
        "lon": -9.137739
    },
    {
        "id": "382:1_5502",
        "name": "PRAÇA DO COMÉRCIO",
        "x": -9.135325,
        "y": 38.708998,
        "companyZoneId": 382,
        "lat": 38.708998,
        "lon": -9.135325
    },
    {
        "id": "382:1_5504",
        "name": "PRAÇA DO COMÉRCIO",
        "x": -9.138598,
        "y": 38.707944,
        "companyZoneId": 382,
        "lat": 38.707944,
        "lon": -9.138598
    },
    {
        "id": "382:1_5501",
        "name": "PÇ. COMÉRCIO",
        "x": -9.136508,
        "y": 38.708327,
        "companyZoneId": 382,
        "lat": 38.708327,
        "lon": -9.136508
    },
    {
        "id": "382:1_908",
        "name": "ROSSIO",
        "x": -9.139885,
        "y": 38.714037,
        "companyZoneId": 382,
        "lat": 38.714037,
        "lon": -9.139885
    },
    {
        "id": "382:1_906",
        "name": "PRAÇA DA FIGUEIRA",
        "x": -9.137356,
        "y": 38.713743,
        "companyZoneId": 382,
        "lat": 38.713743,
        "lon": -9.137356
    },
    {
        "id": "382:1_905",
        "name": "PRAÇA DA FIGUEIRA",
        "x": -9.137815,
        "y": 38.713953,
        "companyZoneId": 382,
        "lat": 38.713953,
        "lon": -9.137815
    },
    {
        "id": "382:1_902",
        "name": "ROSSIO",
        "x": -9.139711,
        "y": 38.713573,
        "companyZoneId": 382,
        "lat": 38.713573,
        "lon": -9.139711
    },
    {
        "id": "382:1_901",
        "name": "ROSSIO",
        "x": -9.139119,
        "y": 38.714269,
        "companyZoneId": 382,
        "lat": 38.714269,
        "lon": -9.139119
    },
    {
        "id": "382:1_919",
        "name": "ROSSIO",
        "x": -9.139218,
        "y": 38.714402,
        "companyZoneId": 382,
        "lat": 38.714402,
        "lon": -9.139218
    },
    {
        "id": "382:1_917",
        "name": "PRAÇA DA FIGUEIRA",
        "x": -9.137256,
        "y": 38.713393,
        "companyZoneId": 382,
        "lat": 38.713393,
        "lon": -9.137256
    },
    {
        "id": "382:1_910",
        "name": "PRAÇA DA FIGUEIRA",
        "x": -9.138141,
        "y": 38.713625,
        "companyZoneId": 382,
        "lat": 38.713625,
        "lon": -9.138141
    },
    {
        "id": "382:1_912",
        "name": "PRAÇA DA FIGUEIRA",
        "x": -9.13802,
        "y": 38.713912,
        "companyZoneId": 382,
        "lat": 38.713912,
        "lon": -9.13802
    },
    {
        "id": "VF71NZKYZJU900608",
        "name": "091_14UO15",
        "x": -9.134933471679688,
        "y": 38.718833923339844,
        "licencePlate": "091_14UO15",
        "range": 64,
        "batteryLevel": 64,
        "seats": 4,
        "model": "Citroen C-Zero",
        "resourceImageId": "vehicle_gen_emov",
        "realTimeData": true,
        "resourceType": "ELECTRIC_CAR",
        "companyZoneId": 467
    },
    {
        "id": "PT-LIS-A00032",
        "name": "49VF46",
        "x": -9.130335,
        "y": 38.709621,
        "licencePlate": "49VF46",
        "range": 24,
        "batteryLevel": 32,
        "helmets": 2,
        "model": "Askoll",
        "resourceImageId": "vehicle_gen_ecooltra",
        "realTimeData": true,
        "resourceType": "MOPED",
        "companyZoneId": 473
    },
    {
        "id": "PT-LIS-A00125",
        "name": "12VJ59",
        "x": -9.139795,
        "y": 38.711037,
        "licencePlate": "12VJ59",
        "range": 28,
        "batteryLevel": 37,
        "helmets": 2,
        "model": "Askoll",
        "resourceImageId": "vehicle_gen_ecooltra",
        "realTimeData": true,
        "resourceType": "MOPED",
        "companyZoneId": 473
    },
    {
        "id": "PT-LIS-A00123",
        "name": "12VJ40",
        "x": -9.13216,
        "y": 38.713516,
        "licencePlate": "12VJ40",
        "range": 21,
        "batteryLevel": 28,
        "helmets": 2,
        "model": "Askoll",
        "resourceImageId": "vehicle_gen_ecooltra",
        "realTimeData": true,
        "resourceType": "MOPED",
        "companyZoneId": 473
    },
    {
        "id": "PT-LIS-A00177",
        "name": "18VL17",
        "x": -9.130488,
        "y": 38.711739,
        "licencePlate": "18VL17",
        "range": 55,
        "batteryLevel": 73,
        "helmets": 2,
        "model": "Askoll",
        "resourceImageId": "vehicle_gen_ecooltra",
        "realTimeData": true,
        "resourceType": "MOPED",
        "companyZoneId": 473
    },
    {
        "id": "PT-LIS-A00208",
        "name": "26VO52",
        "x": -9.129845,
        "y": 38.714493,
        "licencePlate": "26VO52",
        "range": 40,
        "batteryLevel": 53,
        "helmets": 2,
        "model": "Askoll",
        "resourceImageId": "vehicle_gen_ecooltra",
        "realTimeData": true,
        "resourceType": "MOPED",
        "companyZoneId": 473
    },
    {
        "id": "PT-LIS-A00219",
        "name": "39VO29",
        "x": -9.1424,
        "y": 38.710262,
        "licencePlate": "39VO29",
        "range": 54,
        "batteryLevel": 72,
        "helmets": 2,
        "model": "Askoll",
        "resourceImageId": "vehicle_gen_ecooltra",
        "realTimeData": true,
        "resourceType": "MOPED",
        "companyZoneId": 473
    },
    {
        "id": "PT-LIS-A00220",
        "name": "39VO35",
        "x": -9.130723,
        "y": 38.712383,
        "licencePlate": "39VO35",
        "range": 48,
        "batteryLevel": 64,
        "helmets": 2,
        "model": "Askoll",
        "resourceImageId": "vehicle_gen_ecooltra",
        "realTimeData": true,
        "resourceType": "MOPED",
        "companyZoneId": 473
    },
    {
        "id": "PT-LIS-A00223",
        "name": "41VO11",
        "x": -9.140382,
        "y": 38.711376,
        "licencePlate": "41VO11",
        "range": 66,
        "batteryLevel": 88,
        "helmets": 2,
        "model": "Askoll",
        "resourceImageId": "vehicle_gen_ecooltra",
        "realTimeData": true,
        "resourceType": "MOPED",
        "companyZoneId": 473
    },
    {
        "id": "PT-LIS-A00235",
        "name": "52VO47",
        "x": -9.134546,
        "y": 38.713245,
        "licencePlate": "52VO47",
        "range": 43,
        "batteryLevel": 57,
        "helmets": 2,
        "model": "Askoll",
        "resourceImageId": "vehicle_gen_ecooltra",
        "realTimeData": true,
        "resourceType": "MOPED",
        "companyZoneId": 473
    },
    {
        "id": "PT-LIS-A00252",
        "name": "67VP87",
        "x": -9.143015,
        "y": 38.713062,
        "licencePlate": "67VP87",
        "range": 23,
        "batteryLevel": 30,
        "helmets": 2,
        "model": "Askoll",
        "resourceImageId": "vehicle_gen_ecooltra",
        "realTimeData": true,
        "resourceType": "MOPED",
        "companyZoneId": 473
    },
    {
        "id": "PT-LIS-A00279",
        "name": "66VP94",
        "x": -9.13345,
        "y": 38.71476,
        "licencePlate": "66VP94",
        "range": 49,
        "batteryLevel": 65,
        "helmets": 2,
        "model": "Askoll",
        "resourceImageId": "vehicle_gen_ecooltra",
        "realTimeData": true,
        "resourceType": "MOPED",
        "companyZoneId": 473
    },
    {
        "id": "PT-LIS-A00290",
        "name": "33VQ27",
        "x": -9.13258,
        "y": 38.719147,
        "licencePlate": "33VQ27",
        "range": 33,
        "batteryLevel": 44,
        "helmets": 2,
        "model": "Askoll",
        "resourceImageId": "vehicle_gen_ecooltra",
        "realTimeData": true,
        "resourceType": "MOPED",
        "companyZoneId": 473
    },
    {
        "id": "225",
        "name": "225 - Martim Moniz",
        "x": -9.13694,
        "y": 38.71526,
        "realTimeData": true,
        "station": true,
        "availableResources": 8,
        "spacesAvailable": 8,
        "allowDropoff": true,
        "companyZoneId": 412,
        "bikesAvailable": 8
    },
    {
        "id": "212",
        "name": "212 - Av. Infante Dom Henrique / Terminal de Cruzeiros",
        "x": -9.12769,
        "y": 38.71035,
        "realTimeData": true,
        "station": true,
        "availableResources": 9,
        "spacesAvailable": 11,
        "allowDropoff": true,
        "companyZoneId": 412,
        "bikesAvailable": 9
    },
    {
        "id": "309",
        "name": "309 - Rua da Palma",
        "x": -9.13577,
        "y": 38.71901,
        "realTimeData": true,
        "station": true,
        "availableResources": 9,
        "spacesAvailable": 1,
        "allowDropoff": true,
        "companyZoneId": 412,
        "bikesAvailable": 9
    },
    {
        "id": "219",
        "name": "219 - Praça do Município",
        "x": -9.13951,
        "y": 38.70797,
        "realTimeData": true,
        "station": true,
        "availableResources": 5,
        "spacesAvailable": 17,
        "allowDropoff": true,
        "companyZoneId": 412,
        "bikesAvailable": 5
    },
    {
        "id": "224",
        "name": "224 - Martim Moniz",
        "x": -9.13651,
        "y": 38.71498,
        "realTimeData": true,
        "station": true,
        "availableResources": 9,
        "spacesAvailable": 13,
        "allowDropoff": true,
        "companyZoneId": 412,
        "bikesAvailable": 9
    }
]
